{
  "model": "CourseClasses",
  "components": [
    {
      "type": "fieldset",
      "components": [
        {
          "customClass": "text-dark",
          "hideLabel": true,
          "type": "columns",
          "input": false,
          "columns": [
            {
              "components": [
                {
                  "label": "Course ID",
                  "labelPosition": "top",
                  "disabled": true,
                  "widget": {
                    "type": "input"
                  },
                  "validate": {
                    "required": false
                  },
                  "key": "course.id",
                  "type": "textfield",
                  "input": true,
                  "hidden": true
                }
              ],
              "width": 0
            },
            {
              "components": [
                {
                  "label": "Department",
                  "labelPosition": "top",
                  "widget": "choicesjs",
                  "dataSrc": "url",
                  "data": {
                    "url": "LocalDepartments",
                    "headers": []
                  },
                  "searchFields": [
                    "value.id",
                    "value.alternateName"
                  ],
                  "template": "<span class='d-block pr-5 text-truncate'>{{ item.name }}</span>",
                  "selectValues": "value",
                  "disabled": true,
                  "hidden": true,
                  "key": "department",
                  "valueProperty": "id",
                  "customDefaultValue": "value =data.course.department;",
                  "lazyLoad": false,
                  "type": "select",
                  "input": true,
                  "validate": {
                    "required": true
                  }
                }
              ],
              "width": 5
            }
          ]
        }
      ]
    },
    {
      "type": "fieldset",
      "legend": "Classes Details",
      "components": [
        {
          "customClass": "text-dark",
          "hideLabel": true,
          "type": "columns",
          "input": false,
          "columns": [
            {
              "components": [
                {
                  "label": "Class Title",
                  "labelPosition": "top",
                  "widget": {
                    "type": "input"
                  },
                  "validate": {
                    "required": true
                  },
                  "key": "title",
                  "type": "textfield",
                  "input": true
                }
              ],
              "width": 12
            },
            {
              "components": [
                {
                  "label": "Period",
                  "labelPosition": "top",
                  "widget": "choicesjs",
                  "dataSrc": "url",
                  "data": {
                    "url": "AcademicPeriods",
                    "headers": []
                  },
                  "searchFields": [
                    "value.id",
                    "value.alternateName"
                  ],
                  "template": "<span class='d-block pr-5 text-truncate'>{{ item.name }}</span>",
                  "selectValues": "value",
                  "key": "period.id",
                  "valueProperty": "id",
                  "lazyLoad": false,
                  "type": "select",
                  "input": true,
                  "validate": {
                    "required": true
                  }
                }
              ],
              "width": 2
            },
            {
              "components": [
                {
                  "label": "Academic Year",
                  "labelPosition": "top",
                  "widget": "choicesjs",
                  "dataSrc": "url",
                  "data": {
                    "url": "AcademicYears?$orderby=id desc",
                    "headers": []
                  },
                  "searchFields": [
                    "value.id",
                    "value.alternateName"
                  ],
                  "template": "<span class='d-block pr-5 text-truncate'>{{ item.alternateName }}</span>",
                  "selectValues": "value",
                  "key": "year.id",
                  "valueProperty": "id",
                  "lazyLoad": false,
                  "type": "select",
                  "input": true,
                  "validate": {
                    "required": true
                  }
                }
              ],
              "width": 3
            }
          ]
        }
      ]
    },
    {
      "type": "fieldset",
      "legend": "Teaching Details",
      "components": [
        {
          "customClass": "text-dark",
          "hideLabel": true,
          "type": "columns",
          "input": false,
          "columns": [
            {
              "components": [
                {
                  "label": "Max Number of Students",
                  "labelPosition": "top",
                  "widget": {
                    "type": "input"
                  },
                  "validate": {
                    "required": false,
                    "integer": true
                  },
                  "key": "maxNumberOfStudents",
                  "type": "number",
                  "input": true
                }
              ],
              "width": 4
            },
            {
              "components": [
                {
                  "label": "Week Hours",
                  "labelPosition": "top",
                  "widget": {
                    "type": "input"
                  },
                  "validate": {
                    "required": false,
                    "integer": true
                  },
                  "key": "weekHours",
                  "type": "number",
                  "input": true
                }
              ],
              "width": 4
            },
            {
              "components": [
                {
                  "label": "Total Hours",
                  "labelPosition": "top",
                  "widget": {
                    "type": "input"
                  },
                  "validate": {
                    "required": false,
                    "integer": true
                  },
                  "key": "totalHours",
                  "type": "number",
                  "input": true
                }
              ],
              "width": 4
            }
          ]
        }
      ]
    },
    {
      "type": "button",
      "label": "Submit",
      "key": "submit",
      "disableOnInvalid": true,
      "input": true
    }
  ]
}
