{
    "title": "Requests.ActiveStudentRequestActions",
    "model": "StudentRequestActions",
    "searchExpression": "(indexof(name, '${text}') ge 0 or indexof(additionalType, '${text}') ge 0)",
    "selectable": false,
    "multipleSelect": false,
    "columns": [
      {
        "name": "id",
        "property": "id",
        "formatter": "ActionLinkFormatter",
        "actions": [
          {
            "title": "Requests.Preview.Label",
            "href": "#/requests/${id}/"
          }
        ]
      },
      {
        "name": "additionalType",
        "property": "additionalType",
        "title": "Requests.AdditionalType",
        "formatter": "TranslationFormatter",
        "formatString": "StudentRequestActionsTypes.${value}"
      },
      {
        "name": "name",
        "property": "name",
        "title": "Requests.Preview.Description"
      },
      {
        "name": "agent/alternateName",
        "property": "agentName",
        "title": "Requests.AgentName"
      },
      {
        "name": "startTime",
        "property": "startTime",
        "title": "Requests.StartTime",
        "formatter": "DateTimeFormatter",
        "formatString": "shortDate"
      },
      {
        "name": "dateModified",
        "property": "dateModified",
        "title": "Requests.DateModified",
        "formatter": "DateTimeFormatter",
        "formatString": "shortDate"
      },
      {
        "name": "actionStatus/alternateName",
        "property": "actionStatus",
        "title": "Requests.ActionStatusTitle",
        "formatters": [
          {
            "formatter": "TranslationFormatter",
            "formatString": "ActionStatusTypes.${value}"
          },
          {
            "formatter": "NgClassFormatter",
            "formatOptions": {
              "ngClass": {
                "text-danger": "'${actionStatus}'==='CancelledActionStatus' || '${actionStatus}'==='FailedActionStatus'",
                "text-primary": "'${actionStatus}'==='ActiveActionStatus' || '${actionStatus}'==='PotentialActionStatus'",
                "text-success": "'${actionStatus}'==='CompletedActionStatus'"
              }
            }
          }
        ]
      }
    ],
    "defaults":{
      "filter": "(student/department eq ${currentDepartment})",
      "orderBy": "dateCreated desc"
    },
    "criteria": [
      {
        "name": "additionalType",
        "filter": "(additionalType eq '${value}')",
        "type": "text"
      },
      {
        "name": "studentName",
        "filter": "(indexof(student/person/familyName, '${value}') ge 0 or indexof(student/person/givenName, '${value}') ge 0)",
        "type": "text"
      },
      {
        "name": "studentStatus",
        "filter": "(student/studentStatus/alternateName eq '${value}')",
        "type": "text"
      },
      {
        "name": "actionStatus",
        "filter": "(actionStatus/alternateName eq '${value}')",
        "type": "text"
      },
      {
        "name": "studentIdentifier",
        "filter": "(indexof(student/studentIdentifier, '${value}') ge 0)",
        "type": "text"
      },
      {
        "name": "startTime",
        "filter": "(startTime eq '${value}')",
        "type": "text"
      },
      {
        "name": "name",
        "filter": "(indexof(name, '${value}') ge 0)",
        "type": "text"
      }
    ]
  }
