{
  "model": "AttachmentTypes",
  "settings": {
    "i18n": {
      "el": {
        "Indicates whether the attachment should be delivered in person":"Υποδεικνύει εάν το συνημμένο πρέπει να παραδοθεί αυτοπροσώπως",
        "Physical file":"Φυσικό αρχείο"
      }
    }
  },
  "components": [
    {
      "type": "fieldset",
      "legend": "Course info",
      "components": [
        {
          "columns": [
            {
              "components": [
                {
                  "label": "Name",
                  "labelPosition": "top",
                  "widget": {
                    "type": "input"
                  },
                  "validate": {
                    "required": true
                  },
                  "key": "name",
                  "type": "textfield",
                  "input": true,
                  "disabled": false
                }
              ],
              "width": 6
            },
            {
              "components": [
                {
                  "label": "AlternateName",
                  "labelPosition": "top",
                  "widget": {
                    "type": "input"
                  },
                  "validate": {
                    "required": true
                  },
                  "key": "alternateName",
                  "type": "textfield",
                  "input": true
                }
              ],
              "width": 6
            },
            {
              "components": [
                {
                  "label": "Description",
                  "labelPosition": "top",
                  "widget": {
                    "type": "input"
                  },
                  "validate": {
                    "required": false
                  },
                  "key": "description",
                  "type": "textarea",
                  "input": true
                }
              ],
              "width": 12
            },
            {
              "components": [
                {
                  "label": "Physical file",
                  "labelPosition": "top",
                  "widget": "choicesjs",
                  "data": {
                    "values": [
                      {
                        "label": "No",
                        "value": "false"
                      },
                      {
                        "label": "Yes",
                        "value": "true"
                      }
                    ]
                  },
                  "validate": {
                    "required": true
                  },
                  "dataType": "string",
                  "input": true,
                  "key": "physical",
                  "searchEnabled": false,
                  "type": "select",
                  "description": "Indicates whether the attachment should be delivered in person"
                }
              ],
              "width": 6
            }
          ],
          "customClass": "text-dark",
          "hideLabel": true,
          "type": "columns",
          "input": false
        }
      ]
    },
    {
      "type": "button",
      "label": "Submit",
      "key": "submit",
      "disableOnInvalid": true,
      "input": true
    }
  ]
}
