{
    "components": [
      {
        "label": "Columns",
        "columns": [
          {
            "components": [
              {
                "label": "Registrations.StudentName",
                "key": "studentName",
                "type": "textfield",
                "input": true
              }
            ],
            "width": 6,
            "offset": 0,
            "push": 0,
            "pull": 0
          },
          {
            "components": [
              {
                "label": "Students.StudentIdentifier.long",
                "key": "studentIdentifier",
                "type": "textfield",
                "input": true
              }
            ],
            "width": 6,
            "offset": 0,
            "push": 0,
            "pull": 0
          }
        ],
        "tableView": false,
        "key": "department",
        "type": "columns",
        "input": false,
        "path": "columns"
      },
      {
        "label": "Columns",
        "columns": [
          {
            "components": [
              {
                "label": "Registrations.Status",
                "labelPosition": "top",
                "widget": "choicesjs",
                "searchEnabled": false,
                "template": "<span class='d-block pr-5 text-truncate'>{{ item.name }}</span>",
                "type": "select",
                "input": true,
                "dataSrc": "url",
                "data": {
                  "url": "PeriodRegistrationStatuses",
                  "headers": []
                },
                "key": "status",
                "valueProperty": "alternateName",
                "selectValues": "value"
              }
            ],
            "width": 4,
            "offset": 0,
            "push": 0,
            "pull": 0
          },
          {
            "components": [
                {
                    "label": "Registrations.AdvancedSearch.AcademicPeriod",
                    "widget": "choicesjs",
                    "dataSrc": "url",
                    "data": {
                      "url": "AcademicPeriods",
                      "headers": []
                    },
                    "selectThreshold": 0.3,
                    "template": "<span class='d-block pr-5 text-truncate'>{{ item.name }}</span>",
                    "key": "registrationPeriod",
                    "valueProperty": "alternateName",
                    "selectValues": "value",
                    "type": "select",
                    "input": true,
                    "searchEnabled": false
                  }
            ],
            "width": 4,
            "offset": 0,
            "push": 0,
            "pull": 0
          },
          {
            "components": [
              {
                "label": "Registrations.AdvancedSearch.AcademicYear",
                    "widget": "choicesjs",
                    "dataSrc": "url",
                    "data": {
                      "url": "AcademicYears/?$top=-1&$orderby=id desc",
                      "headers": []
                    },
                    "selectThreshold": 0.3,
                    "template": "<span class='d-block pr-5 text-truncate'>{{ item.name }}</span>",
                    "key": "registrationYear",
                    "valueProperty": "id",
                    "selectValues": "value",
                    "type": "select",
                    "input": true,
                    "searchEnabled": false
              }
            ],
            "width": 4,
            "offset": 0,
            "push": 0,
            "pull": 0
          }
        ],
        "tableView": false,
        "key": "columns1",
        "type": "columns",
        "input": false,
        "path": "columns1"
      }
    ]
  }
  