{
  "model": "GradeScales",
  "subtitle": "EditItem",
  "settings": {
    "i18n": {
      "el": {
        "ScaleNameDescription":"Ορίστε την ονομασία αυτής της κλίμακας βαθμολογίας",
        "ScaleTypeDescription": "Ορίστε τον τύπο της κλίμακας βαθμολογίας. Οι αλφαριθμητικές κλίμακες βαθμολογίας πρέπει να έχουν και ορισμένες τιμές.",
        "ScaleBaseDescription": "Ορίστε την βάση αυτής της κλίμακας. Βαθμοί μεγαλύτεροι ή ίσοι αυτής τιμής ορίζουν μία επιτυχία.",
        "ScaleFactorDescription": "Ο συντελεστής αυτός θα χρησιμοποιηθεί για την μετατροπή μίας ποσοστιαίας τιμής στην αντιστοίχη τιμή της κλίμακας βαθμολογίας πχ. η κλίμακα 0-10 έχει συντελεστή 0.1 Βαθμός = 0.7 / Συντελεστής 0.1 = 7",
        "ScalePrecisionDescription": "Ορίστε τον αριθμό των δεκαδικών ψηφίων κατά την μετατροπή μίας τιμής της κλίμακας βαθμολογίας στην αντίστοιχη ποσοστιαία τιμή.",
        "FormatPrecisionDescription": "Ορίστε τον αριθμό των δεκαδικών ψηφίων κατά την μετατροπή μίας ποσοστιαίας τιμής στην αντίστοιχη τιμή της κλίμακας βαθμολογίας",
        "GradeScaleValuesDescription" : "Η παρακάτω λίστα περιέχει τις τιμές αυτής της κλίμακας. Ορίστε την ονομασία, το εύρος τιμών και την ακριβή τιμή που θα χρησιμοποιηθεί κατά την μετατροπή μίας τιμής της κλίμακας στην αντίστοιχη ποσοστιαία τιμή",
        "AddItem": "Προσθήκη στοιχείου"
      },
      "en": {
        "ScaleNameDescription": "Set the name of this grade scale",
        "ScaleTypeDescription": "Set the type of this grade scale. Remember that an alphanumeric grade scale should have a set of values.",
        "ScaleBaseDescription" : "Set the base of this grade scale. Any grade which is greater or equal to that value is counted as passed.",
        "ScaleFactorDescription" : "This factor is going to be used to convert a numeric value to an equivalent value for this numeric grade scale. e.g 0-10 grade scale has factor 0.1. Grade=0.7 / Factor=0.1 = 7",
        "ScalePrecisionDescription": "Set the number of decimal digits when converting a value of a numeric grade scale to the equivalent percentage value.",
        "FormatPrecisionDescription": "Set the number of decimal digits when converting a percentage value to the equivalent value of a numeric grade scale.",
        "GradeScaleValuesDescription" : "The following list contains the values of this grade scale. Set a name, a value range for each value and an exact value when converting a value of this grade scale to the equivalent percentage value.",
        "AddItem": "Add item"
       }
    }
  },
  "components": [
    {
      "label": "HTML",
      "tag": "h5",
      "className": "font-weight-normal mb-3",
      "content": "{{instance.t(form.subtitle)}}",
      "refreshOnChange": false,
      "tableView": false,
      "key": "subtitle",
      "type": "htmlelement",
      "input": false
    },
    {
      "label": "Tabs",
      "components": [
        {
          "label": "General",
          "key": "general",
          "components": [
            {
              "type": "columns",
              "columns": [
                {
                  "components": [
                    {
                      "label": "Name",
                      "tableView": true,
                      "key": "name",
                      "type": "textfield",
                      "input": true,
                      "validate": {
                        "required": true
                      },
                      "description": "ScaleNameDescription"
                    }
                  ],
                  "width": 6
                },
                {
                  "components": [
                    {
                      "label": "Type",
                      "widget": "html5",
                      "tableView": true,
                      "dataType": "auto",
                      "defaultValue": 0,
                      "description": "ScaleTypeDescription",
                      "validate": {
                        "required": true
                      },
                      "data": {
                        "values": [
                          {
                            "label": "NumericScaleType",
                            "value": 0
                          },
                          {
                            "label": "AlphanumericScaleType",
                            "value": 1
                          },
                          {
                            "label": "BooleanScaleType",
                            "value": 3
                          }
                        ]
                      },
                      "selectThreshold": 0.3,
                      "key": "scaleType",
                      "type": "select",
                      "input": false
                    }
                  ],
                  "width": 6
                },
                {
                  "components": [
                    {
                      "label": "ScaleBase",
                      "mask": false,
                      "spellcheck": true,
                      "tableView": false,
                      "delimiter": false,
                      "requireDecimal": false,
                      "inputFormat": "plain",
                      "validate": {
                        "min": 0,
                        "max": 1,
                        "required": true
                      },
                      "key": "scaleBase",
                      "type": "number",
                      "input": true,
                      "description": "ScaleBaseDescription"
                    }
                  ],
                  "width": 6
                },
                {
                  "components": [
                    {
                      "label": "ScaleFactor",
                      "mask": false,
                      "spellcheck": true,
                      "tableView": false,
                      "delimiter": false,
                      "requireDecimal": false,
                      "inputFormat": "plain",
                      "required": true,
                      "validate": {
                        "min": 0,
                        "max": 1,
                        "required": true
                      },
                      "key": "scaleFactor",
                      "type": "number",
                      "input": true,
                      "description": "ScaleFactorDescription"
                    }
                  ],
                  "width": 6
                },
                {
                  "components": [
                    {
                      "label": "ScalePrecision",
                      "mask": false,
                      "spellcheck": true,
                      "tableView": false,
                      "delimiter": false,
                      "requireDecimal": false,
                      "inputFormat": "plain",
                      "validate": {
                        "min": 1,
                        "required": true
                      },
                      "key": "scalePrecision",
                      "type": "number",
                      "input": true,
                      "description": "ScalePrecisionDescription"
                    }
                  ],
                  "width": 6
                },
                {
                  "components": [
                    {
                      "label": "FormatPrecision",
                      "mask": false,
                      "spellcheck": true,
                      "tableView": false,
                      "delimiter": false,
                      "requireDecimal": false,
                      "inputFormat": "plain",
                      "required": true,
                      "validate": {
                        "min": 1,
                        "required": true
                      },
                      "key": "formatPrecision",
                      "type": "number",
                      "input": true,
                      "description": "FormatPrecisionDescription"
                    }
                  ],
                  "width": 6
                }
              ]
            }
            
            
          ]
        },
        {
          "label": "Values",
          "key": "values",
          "hideLabel": true,
          "components": [
            {
              "label": "GradeScaleValuesDescription",
              "reorder": false,
              "customClass": "text-secondary border-0",
              "addAnotherPosition": "bottom",
              "addAnother": "AddItem",
              "defaultOpen": false,
              "layoutFixed": false,
              "enableRowGroups": false,
              "initEmpty": true,
              "tableView": false,
              "defaultValue": [
                {}
              ],
              "key": "values",
              "type": "datagrid",
              "input": true,
              "components": [
                {
                  "label": "Name",
                  "tableView": true,
                  "key": "alternateName",
                  "type": "textfield",
                  "input": true,
                  "validate":{
                    "required": true
                  }
                },
                {
                  "label": "ValueFrom",
                  "mask": false,
                  "spellcheck": true,
                  "tableView": false,
                  "delimiter": false,
                  "requireDecimal": false,
                  "inputFormat": "plain",
                  "customClass": "text-right",
                  "key": "valueFrom",
                  "type": "number",
                  "input": true,
                  "validate": {
                    "required": true,
                    "min": 0,
                    "max": 1
                  }
                },
                {
                  "label": "ValueTo",
                  "mask": false,
                  "spellcheck": true,
                  "tableView": false,
                  "delimiter": false,
                  "requireDecimal": false,
                  "customClass": "text-right",
                  "inputFormat": "plain",
                  "key": "valueTo",
                  "type": "number",
                  "input": true,
                  "validate": {
                    "required": true,
                    "min": 0,
                    "max": 1
                  }
                },
                {
                  "label": "ExactValue",
                  "mask": false,
                  "spellcheck": true,
                  "tableView": false,
                  "delimiter": false,
                  "requireDecimal": false,
                  "customClass": "text-right",
                  "inputFormat": "plain",
                  "key": "exactValue",
                  "type": "number",
                  "input": true,
                  "validate": {
                    "required": true,
                    "min": 0,
                    "max": 1
                  }
                }
              ]
            }
          ]
        }
      ],
      "key": "tabs",
      "type": "tabs",
      "input": false,
      "tableView": false
    },
    {
      "type": "button",
      "label": "Submit",
      "key": "submit",
      "disableOnInvalid": true,
      "input": true,
      "tableView": false
    }
  ]
}
