{
  "title": "courseClasses",
  "model": "courseClasses",
  "searchExpression":"indexof(period/name, '${text}') ge 0 or indexof(year/alternateName, '${text}') ge 0 or indexof(course/name, '${text}') ge 0 or indexof(course/displayCode, '${text}') ge 0",
  "columns": [
    {
      "name":"id",
      "property": "id",
      "formatter": "ActionLinkFormatter",
      "actions" : [
        {
          "title": "Labels.PreviewLink",
          "href": "#/classes/${id}/dashboard/overview"
        }
      ]
    },
    {
      "name":"course/displayCode",
      "property":"displayCode",
      "title":"Classes.DisplayCode"
    },
    {
      "name": "course/name",
      "property": "title",
      "title": "Classes.ClassTitle"
    },
    {
      "name": "year/alternateName",
      "property": "year",
      "title": "Classes.Year"
    },
    {
      "name": "period/name",
      "property": "period",
      "title": "Classes.Period"
    },
    {
      "name": "numberOfStudents",
      "property": "numberOfStudents",
      "title": "Classes.NumberOfStudents"
    },
    {
      "name": "maxNumberOfStudents",
      "property": "maxNumberOfStudents",
      "title": "Classes.MaxNumberOfStudents"
    },
    {
      "name": "weekHours",
      "property": "weekHours",
      "title": "Classes.WeekHours"
    },
    {
      "name": "totalHours",
      "property": "totalHours",
      "title": "Classes.TotalHours"
    }
  ],
  "criteria": [
    {
      "name": "classTitle",
      "filter": "(indexof(title, '${value}') ge 0)",
      "type": "text"
    },
    {
      "name": "displayCode",
      "filter": "(course/displayCode eq '${value}')",
      "type": "text"
    }
    ,
    {
      "name": "numberOfStudents",
      "filter": "(numberOfStudents eq '${value}')",
      "type": "text"
    },
    {
      "name": "academicYear",
      "filter": "(year/id eq '${value}')",
      "type": "text"
    },
    {
      "name": "academicPeriod",
      "filter": "(period/alternateName eq '${value}')",
      "type": "text"
    },
    {
      "name": "courseID",
      "filter": "(course eq '${value}')",
      "type": "text"
    }
  ]
}
